Name	Target	Assay	Source	ID	Cell_line	Data_file	Library_size	Control_data_file	Control_library_size
MEF_CTCF	CTCF	ChIP-seq	GEO	GSE99197	MEF	../data/bam_files/MEF/CTCF_mef_mm9_chr19.bam	38148767	../data/bam_files/MEF/INPUT_1_mef_mm9_chr19.bam	26778721
MEF_DNase-seq	DNase-seq	DNase-seq	ENA	PRJNA269282	MEF	../data/bam_files/MEF/DNase_mef_mm9_chr19.bam	63221509	NA	NA
MEF_RAD21	RAD21	ChIP-seq	GEO	GSE99197	MEF	../data/bam_files/MEF/RAD21_mef_mm9_chr19.bam	35368945	../data/bam_files/MEF/INPUT_1_mef_mm9_chr19.bam	26778721
MEF_H3K27ac	H3K27ac	ChIP-seq	ENCODE	ENCSR000CDI	MEF	../data/bam_files/MEF/H3K27ac_mef_mm9_chr19.bam	14522940	../data/bam_files/MEF/INPUT_2_mef_mm9_chr19.bam	36435636
MEF_H3K27me3	H3K27me3	ChIP-seq	GEO	GSE51505	MEF	../data/bam_files/MEF/H3K27me3_mef_mm9_chr19.bam	11652569	../data/bam_files/MEF/INPUT_2_mef_mm9_chr19.bam	36435636
MEF_H3K36me3	H3K36me3	ChIP-seq	GEO	GSE51505	MEF	../data/bam_files/MEF/H3K36me3_mef_mm9_chr19.bam	6754120	../data/bam_files/MEF/INPUT_2_mef_mm9_chr19.bam	36435636
MEF_H3K4me1	H3K4me1	ChIP-seq	ENCODE	ENCSR000CAZ	MEF	../data/bam_files/MEF/H3K4me1_mef_mm9_chr19.bam	11271786	../data/bam_files/MEF/INPUT_2_mef_mm9_chr19.bam	36435636
MEF_H3K4me3	H3K4me3	ChIP-seq	ENCODE	ENCSR000CBA	MEF	../data/bam_files/MEF/H3K4me3_mef_mm9_chr19.bam	11195962	../data/bam_files/MEF/INPUT_2_mef_mm9_chr19.bam	36435636
MEF_H3K9ac	H3K9ac	ChIP-seq	GEO	GSE51505	MEF	../data/bam_files/MEF/H3K9ac_mef_mm9_chr19.bam	25604730	../data/bam_files/MEF/INPUT_2_mef_mm9_chr19.bam	36435636
MEF_MNase-seq	MNase-seq	MNase-seq	GEO	GSE40910	MEF	../data/bam_files/MEF/MNase-seq_mef_mm9_chr19.bam	273310502	NA	NA
MEF_POLR2A	POLR2A	ChIP-seq	ENCODE	ENCSR000CBX	MEF	../data/bam_files/MEF/POLR2A_mef_mm9_chr19.bam	31743889	../data/bam_files/MEF/INPUT_2_mef_mm9_chr19.bam	36435636
MEF_RNA-seq	RNA-seq	RNA-seq	GEO	ENCSR000CGV	MEF	../data/bam_files/MEF/RNA-seq_mef_mm9_chr19.bam	29963491	NA	NA
MEF_STAG1	STAG1	ChIP-seq	GEO	GSE32320	MEF	../data/bam_files/MEF/STAG1_mef_mm9_chr19.bam	23774098	../data/bam_files/MEF/INPUT_3_mef_mm9_chr19.bam	24646651
MEF_STAG2	STAG2	ChIP-seq	GEO	GSE32320	MEF	../data/bam_files/MEF/STAG2_mef_mm9_chr19.bam	22928066	../data/bam_files/MEF/INPUT_3_mef_mm9_chr19.bam	24646651
MEF_WGBS	NA	WGBS	GEO	GSE56151	MEF	../data/bam_files/MEF/WGBS_mef_mm9_chr19.RData	NA	NA	NA
